[
   {
      "AssociatedTintGroup" : "Brows",
      "BonesA" : [
         {
            "Bone" : "bone_C_MasterEyebrow",
            "Maxima" : {
               "Position" : {
                  "x" : 0.20000000298023224,
                  "y" : 0.40000000596046448,
                  "z" : 0.34999999403953552
               },
               "Rotation" : {
                  "x" : 15,
                  "y" : 0,
                  "z" : 0
               },
               "Scale" : {
                  "x" : 0,
                  "y" : 0,
                  "z" : 0
               }
            },
            "Minima" : {
               "Position" : {
                  "x" : -0.20000000298023224,
                  "y" : -0.20000000298023224,
                  "z" : -0.20000000298023224
               },
               "Rotation" : {
                  "x" : -15,
                  "y" : 0,
                  "z" : 0
               },
               "Scale" : {
                  "x" : 0,
                  "y" : 0,
                  "z" : 0
               }
            }
         }
      ],
      "Defaults" : {
         "Position" : {
            "x" : 0,
            "y" : 0,
            "z" : 0
         },
         "Rotation" : {
            "x" : 0,
            "y" : 0,
            "z" : 0
         },
         "Scale" : {
            "x" : 0,
            "y" : 0,
            "z" : 0
         }
      },
      "ID" : 0,
      "Name" : "Eyebrow Main"
   },
   {
      "AssociatedTintGroup" : "Brows",
      "BonesA" : [
         {
            "Bone" : "bone_R_EyebrowIn",
            "Maxima" : {
               "Position" : {
                  "x" : 0.60000002384185791,
                  "y" : 0.40000000596046448,
                  "z" : 0.40000000596046448
               },
               "Rotation" : {
                  "x" : 0,
                  "y" : 0,
                  "z" : 0
               },
               "Scale" : {
                  "x" : 0,
                  "y" : 0,
                  "z" : 0
               }
            },
            "Minima" : {
               "Position" : {
                  "x" : -0.60000002384185791,
                  "y" : -0.40000000596046448,
                  "z" : -0.40000000596046448
               },
               "Rotation" : {
                  "x" : 0,
                  "y" : 0,
                  "z" : 0
               },
               "Scale" : {
                  "x" : 0,
                  "y" : 0,
                  "z" : 0
               }
            }
         },
         {
            "Bone" : "bone_L_EyebrowIn",
            "Maxima" : {
               "Position" : {
                  "x" : -0.60000002384185791,
                  "y" : 0.40000000596046448,
                  "z" : 0.40000000596046448
               },
               "Rotation" : {
                  "x" : 0,
                  "y" : 0,
                  "z" : 0
               },
               "Scale" : {
                  "x" : 0,
                  "y" : 0,
                  "z" : 0
               }
            },
            "Minima" : {
               "Position" : {
                  "x" : 0.60000002384185791,
                  "y" : -0.40000000596046448,
                  "z" : -0.40000000596046448
               },
               "Rotation" : {
                  "x" : 0,
                  "y" : 0,
                  "z" : 0
               },
               "Scale" : {
                  "x" : 0,
                  "y" : 0,
                  "z" : 0
               }
            }
         }
      ],
      "Defaults" : {
         "Position" : {
            "x" : 0,
            "y" : 0,
            "z" : 0
         },
         "Rotation" : {
            "x" : 0,
            "y" : 0,
            "z" : 0
         },
         "Scale" : {
            "x" : 0,
            "y" : 0,
            "z" : 0
         }
      },
      "ID" : 1,
      "Name" : "Eyebrow In"
   },
   {
      "AssociatedTintGroup" : "Brows",
      "BonesA" : [
         {
            "Bone" : "bone_R_EyebrowOut",
            "Maxima" : {
               "Position" : {
                  "x" : 0.80000001192092896,
                  "y" : 0.40000000596046448,
                  "z" : 0.40000000596046448
               },
               "Rotation" : {
                  "x" : 0,
                  "y" : 0,
                  "z" : 0
               },
               "Scale" : {
                  "x" : 0,
                  "y" : 0,
                  "z" : 0
               }
            },
            "Minima" : {
               "Position" : {
                  "x" : -0.60000002384185791,
                  "y" : -0.40000000596046448,
                  "z" : -0.40000000596046448
               },
               "Rotation" : {
                  "x" : 0,
                  "y" : 0,
                  "z" : 0
               },
               "Scale" : {
                  "x" : 0,
                  "y" : 0,
                  "z" : 0
               }
            }
         },
         {
            "Bone" : "bone_L_EyebrowOut",
            "Maxima" : {
               "Position" : {
                  "x" : -0.60000002384185791,
                  "y" : 0.40000000596046448,
                  "z" : 0.40000000596046448
               },
               "Rotation" : {
                  "x" : 0,
                  "y" : 0,
                  "z" : 0
               },
               "Scale" : {
                  "x" : 0,
                  "y" : 0,
                  "z" : 0
               }
            },
            "Minima" : {
               "Position" : {
                  "x" : 0.80000001192092896,
                  "y" : -0.40000000596046448,
                  "z" : -0.40000000596046448
               },
               "Rotation" : {
                  "x" : 0,
                  "y" : 0,
                  "z" : 0
               },
               "Scale" : {
                  "x" : 0,
                  "y" : 0,
                  "z" : 0
               }
            }
         }
      ],
      "Defaults" : {
         "Position" : {
            "x" : 0,
            "y" : 0,
            "z" : 0
         },
         "Rotation" : {
            "x" : 0,
            "y" : 0,
            "z" : 0
         },
         "Scale" : {
            "x" : 0,
            "y" : 0,
            "z" : 0
         }
      },
      "ID" : 2,
      "Name" : "Eyebrow Outer"
   },
   {
      "AssociatedMorphGroup" : "Cheeks",
      "BonesA" : [
         {
            "Bone" : "bone_R_Cheekbone",
            "Maxima" : {
               "Position" : {
                  "x" : 0.69999998807907104,
                  "y" : 0.85000002384185791,
                  "z" : 0.64999997615814209
               },
               "Rotation" : {
                  "x" : 0,
                  "y" : 0,
                  "z" : 0
               },
               "Scale" : {
                  "x" : 0.30000001192092896,
                  "y" : 0.30000001192092896,
                  "z" : 0.30000001192092896
               }
            },
            "Minima" : {
               "Position" : {
                  "x" : -0.69999998807907104,
                  "y" : -0.85000002384185791,
                  "z" : -0.5
               },
               "Rotation" : {
                  "x" : 0,
                  "y" : 0,
                  "z" : 0
               },
               "Scale" : {
                  "x" : -0.30000001192092896,
                  "y" : -0.30000001192092896,
                  "z" : -0.30000001192092896
               }
            }
         },
         {
            "Bone" : "bone_L_Cheekbone",
            "Maxima" : {
               "Position" : {
                  "x" : -0.69999998807907104,
                  "y" : 0.85000002384185791,
                  "z" : 0.64999997615814209
               },
               "Rotation" : {
                  "x" : 0,
                  "y" : 0,
                  "z" : 0
               },
               "Scale" : {
                  "x" : 0.30000001192092896,
                  "y" : 0.30000001192092896,
                  "z" : 0.30000001192092896
               }
            },
            "Minima" : {
               "Position" : {
                  "x" : 0.69999998807907104,
                  "y" : -0.85000002384185791,
                  "z" : -0.5
               },
               "Rotation" : {
                  "x" : 0,
                  "y" : 0,
                  "z" : 0
               },
               "Scale" : {
                  "x" : -0.30000001192092896,
                  "y" : -0.30000001192092896,
                  "z" : -0.30000001192092896
               }
            }
         }
      ],
      "Defaults" : {
         "Position" : {
            "x" : 0,
            "y" : 0,
            "z" : 0
         },
         "Rotation" : {
            "x" : 0,
            "y" : 0,
            "z" : 0
         },
         "Scale" : {
            "x" : 0,
            "y" : 0,
            "z" : 0
         }
      },
      "ID" : 3,
      "Name" : "Cheek Bones"
   },
   {
      "AssociatedMorphGroup" : "Cheeks",
      "BonesA" : [
         {
            "Bone" : "bone_L_Cheek",
            "Maxima" : {
               "Position" : {
                  "x" : 0,
                  "y" : 0,
                  "z" : 1
               },
               "Rotation" : {
                  "x" : 0,
                  "y" : 0,
                  "z" : 0
               },
               "Scale" : {
                  "x" : 0.20000000298023224,
                  "y" : 0.20000000298023224,
                  "z" : 0.20000000298023224
               }
            },
            "Minima" : {
               "Position" : {
                  "x" : 0,
                  "y" : 0,
                  "z" : -0.85000002384185791
               },
               "Rotation" : {
                  "x" : 0,
                  "y" : 0,
                  "z" : 0
               },
               "Scale" : {
                  "x" : -0.20000000298023224,
                  "y" : -0.20000000298023224,
                  "z" : -0.20000000298023224
               }
            }
         },
         {
            "Bone" : "bone_R_Cheek",
            "Maxima" : {
               "Position" : {
                  "x" : 0,
                  "y" : 0,
                  "z" : 1
               },
               "Rotation" : {
                  "x" : 0,
                  "y" : 0,
                  "z" : 0
               },
               "Scale" : {
                  "x" : 0.20000000298023224,
                  "y" : 0.20000000298023224,
                  "z" : 0.20000000298023224
               }
            },
            "Minima" : {
               "Position" : {
                  "x" : 0,
                  "y" : 0,
                  "z" : -0.85000002384185791
               },
               "Rotation" : {
                  "x" : 0,
                  "y" : 0,
                  "z" : 0
               },
               "Scale" : {
                  "x" : -0.20000000298023224,
                  "y" : -0.20000000298023224,
                  "z" : -0.20000000298023224
               }
            }
         }
      ],
      "Defaults" : {
         "Position" : {
            "x" : 0,
            "y" : 0,
            "z" : 0
         },
         "Rotation" : {
            "x" : 0,
            "y" : 0,
            "z" : 0
         },
         "Scale" : {
            "x" : 0,
            "y" : 0,
            "z" : 0
         }
      },
      "ID" : 4,
      "Name" : "Cheeks"
   },
   {
      "AssociatedMorphGroup" : "Ears",
      "BonesA" : [
         {
            "Bone" : "bone_R_Ear",
            "Maxima" : {
               "Position" : {
                  "x" : 0.5,
                  "y" : 0.5,
                  "z" : 0.30000001192092896
               },
               "Rotation" : {
                  "x" : 0,
                  "y" : 15,
                  "z" : 0
               },
               "Scale" : {
                  "x" : 0.30000001192092896,
                  "y" : 0.30000001192092896,
                  "z" : 0.30000001192092896
               }
            },
            "Minima" : {
               "Position" : {
                  "x" : -0.5,
                  "y" : -0.5,
                  "z" : -0.30000001192092896
               },
               "Rotation" : {
                  "x" : 0,
                  "y" : -15,
                  "z" : 0
               },
               "Scale" : {
                  "x" : -0.30000001192092896,
                  "y" : -0.30000001192092896,
                  "z" : -0.30000001192092896
               }
            }
         },
         {
            "Bone" : "bone_L_Ear",
            "Maxima" : {
               "Position" : {
                  "x" : -0.5,
                  "y" : 0.5,
                  "z" : 0.30000001192092896
               },
               "Rotation" : {
                  "x" : 0,
                  "y" : -15,
                  "z" : 0
               },
               "Scale" : {
                  "x" : 0.30000001192092896,
                  "y" : 0.30000001192092896,
                  "z" : 0.30000001192092896
               }
            },
            "Minima" : {
               "Position" : {
                  "x" : 0.5,
                  "y" : -0.5,
                  "z" : -0.30000001192092896
               },
               "Rotation" : {
                  "x" : 0,
                  "y" : 15,
                  "z" : 0
               },
               "Scale" : {
                  "x" : -0.30000001192092896,
                  "y" : -0.30000001192092896,
                  "z" : -0.30000001192092896
               }
            }
         }
      ],
      "Defaults" : {
         "Position" : {
            "x" : 0,
            "y" : 0,
            "z" : 0
         },
         "Rotation" : {
            "x" : 0,
            "y" : 0,
            "z" : 0
         },
         "Scale" : {
            "x" : 0,
            "y" : 0,
            "z" : 0
         }
      },
      "ID" : 5,
      "Name" : "Ears Main"
   },
   {
      "AssociatedMorphGroup" : "Ears",
      "BonesA" : [
         {
            "Bone" : "bone_L_EarTop",
            "Maxima" : {
               "Position" : {
                  "x" : -0.30000001192092896,
                  "y" : 0.5,
                  "z" : 0.5
               },
               "Rotation" : {
                  "x" : 0,
                  "y" : 0,
                  "z" : 0
               },
               "Scale" : {
                  "x" : 0,
                  "y" : 0,
                  "z" : 0
               }
            },
            "Minima" : {
               "Position" : {
                  "x" : 0.30000001192092896,
                  "y" : -0.30000001192092896,
                  "z" : -0.30000001192092896
               },
               "Rotation" : {
                  "x" : 0,
                  "y" : 0,
                  "z" : 0
               },
               "Scale" : {
                  "x" : 0,
                  "y" : 0,
                  "z" : 0
               }
            }
         },
         {
            "Bone" : "bone_R_EarTop",
            "Maxima" : {
               "Position" : {
                  "x" : 0.30000001192092896,
                  "y" : 0.5,
                  "z" : 0.5
               },
               "Rotation" : {
                  "x" : 0,
                  "y" : 0,
                  "z" : 0
               },
               "Scale" : {
                  "x" : 0,
                  "y" : 0,
                  "z" : 0
               }
            },
            "Minima" : {
               "Position" : {
                  "x" : -0.30000001192092896,
                  "y" : -0.30000001192092896,
                  "z" : -0.30000001192092896
               },
               "Rotation" : {
                  "x" : 0,
                  "y" : 0,
                  "z" : 0
               },
               "Scale" : {
                  "x" : 0,
                  "y" : 0,
                  "z" : 0
               }
            }
         }
      ],
      "Defaults" : {
         "Position" : {
            "x" : 0,
            "y" : 0,
            "z" : 0
         },
         "Rotation" : {
            "x" : 0,
            "y" : 0,
            "z" : 0
         },
         "Scale" : {
            "x" : 0,
            "y" : 0,
            "z" : 0
         }
      },
      "ID" : 6,
      "Name" : "Ears Top"
   },
   {
      "AssociatedMorphGroup" : "Ears",
      "BonesA" : [
         {
            "Bone" : "bone_R_EarMid",
            "Maxima" : {
               "Position" : {
                  "x" : 0.40000000596046448,
                  "y" : 0.30000001192092896,
                  "z" : 0.5
               },
               "Rotation" : {
                  "x" : 0,
                  "y" : 0,
                  "z" : 0
               },
               "Scale" : {
                  "x" : 0,
                  "y" : 0,
                  "z" : 0
               }
            },
            "Minima" : {
               "Position" : {
                  "x" : -0.40000000596046448,
                  "y" : -0.30000001192092896,
                  "z" : -0.30000001192092896
               },
               "Rotation" : {
                  "x" : 0,
                  "y" : 0,
                  "z" : 0
               },
               "Scale" : {
                  "x" : 0,
                  "y" : 0,
                  "z" : 0
               }
            }
         },
         {
            "Bone" : "bone_L_EarMid",
            "Maxima" : {
               "Position" : {
                  "x" : -0.40000000596046448,
                  "y" : 0.30000001192092896,
                  "z" : 0.5
               },
               "Rotation" : {
                  "x" : 0,
                  "y" : 0,
                  "z" : 0
               },
               "Scale" : {
                  "x" : 0,
                  "y" : 0,
                  "z" : 0
               }
            },
            "Minima" : {
               "Position" : {
                  "x" : 0.40000000596046448,
                  "y" : -0.30000001192092896,
                  "z" : -0.30000001192092896
               },
               "Rotation" : {
                  "x" : 0,
                  "y" : 0,
                  "z" : 0
               },
               "Scale" : {
                  "x" : 0,
                  "y" : 0,
                  "z" : 0
               }
            }
         }
      ],
      "Defaults" : {
         "Position" : {
            "x" : 0,
            "y" : 0,
            "z" : 0
         },
         "Rotation" : {
            "x" : 0,
            "y" : 0,
            "z" : 0
         },
         "Scale" : {
            "x" : 0,
            "y" : 0,
            "z" : 0
         }
      },
      "ID" : 7,
      "Name" : "Ears Mid"
   },
   {
      "AssociatedMorphGroup" : "Ears",
      "BonesA" : [
         {
            "Bone" : "bone_L_EarBot",
            "Maxima" : {
               "Position" : {
                  "x" : -0.40000000596046448,
                  "y" : 0.40000000596046448,
                  "z" : 0.40000000596046448
               },
               "Rotation" : {
                  "x" : 0,
                  "y" : 0,
                  "z" : 0
               },
               "Scale" : {
                  "x" : 0.25,
                  "y" : 0.25,
                  "z" : 0.15000000596046448
               }
            },
            "Minima" : {
               "Position" : {
                  "x" : 0.40000000596046448,
                  "y" : -0.40000000596046448,
                  "z" : -0.40000000596046448
               },
               "Rotation" : {
                  "x" : 0,
                  "y" : 0,
                  "z" : 0
               },
               "Scale" : {
                  "x" : -0.15000000596046448,
                  "y" : -0.15000000596046448,
                  "z" : -0.15000000596046448
               }
            }
         },
         {
            "Bone" : "bone_R_EarBot",
            "Maxima" : {
               "Position" : {
                  "x" : 0.40000000596046448,
                  "y" : 0.40000000596046448,
                  "z" : 0.40000000596046448
               },
               "Rotation" : {
                  "x" : 0,
                  "y" : 0,
                  "z" : 0
               },
               "Scale" : {
                  "x" : 0.25,
                  "y" : 0.25,
                  "z" : 0.25
               }
            },
            "Minima" : {
               "Position" : {
                  "x" : -0.40000000596046448,
                  "y" : -0.40000000596046448,
                  "z" : -0.40000000596046448
               },
               "Rotation" : {
                  "x" : 0,
                  "y" : 0,
                  "z" : 0
               },
               "Scale" : {
                  "x" : -0.15000000596046448,
                  "y" : -0.15000000596046448,
                  "z" : -0.15000000596046448
               }
            }
         }
      ],
      "Defaults" : {
         "Position" : {
            "x" : 0,
            "y" : 0,
            "z" : 0
         },
         "Rotation" : {
            "x" : 0,
            "y" : 0,
            "z" : 0
         },
         "Scale" : {
            "x" : 0,
            "y" : 0,
            "z" : 0
         }
      },
      "ID" : 8,
      "Name" : "Ears Bottom"
   },
   {
      "AssociatedMorphGroup" : "Nose",
      "BonesA" : [
         {
            "Bone" : "bone_C_MasterNose",
            "Maxima" : {
               "Position" : {
                  "x" : 0.10000000149011612,
                  "y" : 0.40000000596046448,
                  "z" : 0.40000000596046448
               },
               "Rotation" : {
                  "x" : 0,
                  "y" : 0,
                  "z" : 0
               },
               "Scale" : {
                  "x" : 0.25,
                  "y" : 0,
                  "z" : 0
               }
            },
            "Minima" : {
               "Position" : {
                  "x" : -0.10000000149011612,
                  "y" : -0.40000000596046448,
                  "z" : -0.30000001192092896
               },
               "Rotation" : {
                  "x" : 0,
                  "y" : 0,
                  "z" : 0
               },
               "Scale" : {
                  "x" : -0.25,
                  "y" : 0,
                  "z" : 0
               }
            }
         }
      ],
      "Defaults" : {
         "Position" : {
            "x" : 0,
            "y" : 0,
            "z" : 0
         },
         "Rotation" : {
            "x" : 0,
            "y" : 0,
            "z" : 0
         },
         "Scale" : {
            "x" : 0,
            "y" : 0,
            "z" : 0
         }
      },
      "ID" : 9,
      "Name" : "Nose Main"
   },
   {
      "AssociatedMorphGroup" : "Nose",
      "BonesA" : [
         {
            "Bone" : "bone_R_Nostril",
            "Maxima" : {
               "Position" : {
                  "x" : 0.20000000298023224,
                  "y" : 0.30000001192092896,
                  "z" : 0.30000001192092896
               },
               "Rotation" : {
                  "x" : 0,
                  "y" : 0,
                  "z" : 0
               },
               "Scale" : {
                  "x" : 0.40000000596046448,
                  "y" : 0.40000000596046448,
                  "z" : 0.40000000596046448
               }
            },
            "Minima" : {
               "Position" : {
                  "x" : -0.20000000298023224,
                  "y" : -0.30000001192092896,
                  "z" : -0.20000000298023224
               },
               "Rotation" : {
                  "x" : 0,
                  "y" : 0,
                  "z" : 0
               },
               "Scale" : {
                  "x" : -0.10000000149011612,
                  "y" : -0.10000000149011612,
                  "z" : -0.10000000149011612
               }
            }
         },
         {
            "Bone" : "bone_R_SideNodeFat",
            "Maxima" : {
               "Position" : {
                  "x" : 0.10000000149011612,
                  "y" : 0.10000000149011612,
                  "z" : 0
               },
               "Rotation" : {
                  "x" : 0,
                  "y" : 0,
                  "z" : 0
               },
               "Scale" : {
                  "x" : 0,
                  "y" : 0,
                  "z" : 0
               }
            },
            "Minima" : {
               "Position" : {
                  "x" : -0.10000000149011612,
                  "y" : 0,
                  "z" : 0
               },
               "Rotation" : {
                  "x" : 0,
                  "y" : 0,
                  "z" : 0
               },
               "Scale" : {
                  "x" : 0,
                  "y" : 0,
                  "z" : 0
               }
            }
         },
         {
            "Bone" : "bone_L_Nostril",
            "Maxima" : {
               "Position" : {
                  "x" : -0.20000000298023224,
                  "y" : 0.30000001192092896,
                  "z" : 0.30000001192092896
               },
               "Rotation" : {
                  "x" : 0,
                  "y" : 0,
                  "z" : 0
               },
               "Scale" : {
                  "x" : 0.40000000596046448,
                  "y" : 0.40000000596046448,
                  "z" : 0.40000000596046448
               }
            },
            "Minima" : {
               "Position" : {
                  "x" : 0.20000000298023224,
                  "y" : -0.30000001192092896,
                  "z" : -0.20000000298023224
               },
               "Rotation" : {
                  "x" : 0,
                  "y" : 0,
                  "z" : 0
               },
               "Scale" : {
                  "x" : -0.10000000149011612,
                  "y" : -0.10000000149011612,
                  "z" : -0.10000000149011612
               }
            }
         },
         {
            "Bone" : "bone_L_SideNodeFat",
            "Maxima" : {
               "Position" : {
                  "x" : -0.10000000149011612,
                  "y" : -0.10000000149011612,
                  "z" : 0
               },
               "Rotation" : {
                  "x" : 0,
                  "y" : 0,
                  "z" : 0
               },
               "Scale" : {
                  "x" : 0,
                  "y" : 0,
                  "z" : 0
               }
            },
            "Minima" : {
               "Position" : {
                  "x" : 0.10000000149011612,
                  "y" : 0,
                  "z" : 0
               },
               "Rotation" : {
                  "x" : 0,
                  "y" : 0,
                  "z" : 0
               },
               "Scale" : {
                  "x" : 0,
                  "y" : 0,
                  "z" : 0
               }
            }
         }
      ],
      "Defaults" : {
         "Position" : {
            "x" : 0,
            "y" : 0,
            "z" : 0
         },
         "Rotation" : {
            "x" : 0,
            "y" : 0,
            "z" : 0
         },
         "Scale" : {
            "x" : 0,
            "y" : 0,
            "z" : 0
         }
      },
      "ID" : 10,
      "Name" : "Nostrils"
   },
   {
      "AssociatedHeadPartType" : "Facial Hair",
      "AssociatedMorphGroup" : "Jaw",
      "BonesA" : [
         {
            "Bone" : "bone_L_JawSide",
            "Maxima" : {
               "Position" : {
                  "x" : -0.40000000596046448,
                  "y" : 0.60000002384185791,
                  "z" : 0.60000002384185791
               },
               "Rotation" : {
                  "x" : 0,
                  "y" : 0,
                  "z" : 0
               },
               "Scale" : {
                  "x" : 0.40000000596046448,
                  "y" : 0.40000000596046448,
                  "z" : 0.40000000596046448
               }
            },
            "Minima" : {
               "Position" : {
                  "x" : 0.80000001192092896,
                  "y" : -0.40000000596046448,
                  "z" : -0.20000000298023224
               },
               "Rotation" : {
                  "x" : 0,
                  "y" : 0,
                  "z" : 0
               },
               "Scale" : {
                  "x" : -0.40000000596046448,
                  "y" : -0.40000000596046448,
                  "z" : -0.40000000596046448
               }
            }
         },
         {
            "Bone" : "bone_R_JawSide",
            "Maxima" : {
               "Position" : {
                  "x" : 0.40000000596046448,
                  "y" : 0.60000002384185791,
                  "z" : 0.60000002384185791
               },
               "Rotation" : {
                  "x" : 0,
                  "y" : 0,
                  "z" : 0
               },
               "Scale" : {
                  "x" : 0.40000000596046448,
                  "y" : 0.40000000596046448,
                  "z" : 0.40000000596046448
               }
            },
            "Minima" : {
               "Position" : {
                  "x" : -0.80000001192092896,
                  "y" : -0.40000000596046448,
                  "z" : -0.20000000298023224
               },
               "Rotation" : {
                  "x" : 0,
                  "y" : 0,
                  "z" : 0
               },
               "Scale" : {
                  "x" : -0.40000000596046448,
                  "y" : -0.40000000596046448,
                  "z" : -0.40000000596046448
               }
            }
         }
      ],
      "Defaults" : {
         "Position" : {
            "x" : 0,
            "y" : 0,
            "z" : 0
         },
         "Rotation" : {
            "x" : 0,
            "y" : 0,
            "z" : 0
         },
         "Scale" : {
            "x" : 0,
            "y" : 0,
            "z" : 0
         }
      },
      "ID" : 921646266,
      "Name" : "Jaw Outer"
   },
   {
      "AssociatedHeadPartType" : "Facial Hair",
      "AssociatedMorphGroup" : "Jaw",
      "BonesA" : [
         {
            "Bone" : "bone_L_JawMid",
            "Maxima" : {
               "Position" : {
                  "x" : -0.40000000596046448,
                  "y" : 0.40000000596046448,
                  "z" : 0.80000001192092896
               },
               "Rotation" : {
                  "x" : 0,
                  "y" : 0,
                  "z" : 0
               },
               "Scale" : {
                  "x" : 0,
                  "y" : 0,
                  "z" : 0
               }
            },
            "Minima" : {
               "Position" : {
                  "x" : 0.40000000596046448,
                  "y" : -0.5,
                  "z" : -0.40000000596046448
               },
               "Rotation" : {
                  "x" : 0,
                  "y" : 0,
                  "z" : 0
               },
               "Scale" : {
                  "x" : 0,
                  "y" : 0,
                  "z" : 0
               }
            }
         },
         {
            "Bone" : "bone_R_JawMid",
            "Maxima" : {
               "Position" : {
                  "x" : 0.40000000596046448,
                  "y" : 0.40000000596046448,
                  "z" : 0.80000001192092896
               },
               "Rotation" : {
                  "x" : 0,
                  "y" : 0,
                  "z" : 0
               },
               "Scale" : {
                  "x" : 0,
                  "y" : 0,
                  "z" : 0
               }
            },
            "Minima" : {
               "Position" : {
                  "x" : -0.40000000596046448,
                  "y" : -0.5,
                  "z" : -0.40000000596046448
               },
               "Rotation" : {
                  "x" : 0,
                  "y" : 0,
                  "z" : 0
               },
               "Scale" : {
                  "x" : 0,
                  "y" : 0,
                  "z" : 0
               }
            }
         }
      ],
      "Defaults" : {
         "Position" : {
            "x" : 0,
            "y" : 0,
            "z" : 0
         },
         "Rotation" : {
            "x" : 0,
            "y" : 0,
            "z" : 0
         },
         "Scale" : {
            "x" : 0,
            "y" : 0,
            "z" : 0
         }
      },
      "ID" : 921646267,
      "Name" : "Jaw Mid"
   },
   {
      "AssociatedMorphGroup" : "Forehead",
      "BonesA" : [
         {
            "Bone" : "bone_L_Temple",
            "Maxima" : {
               "Position" : {
                  "x" : 0,
                  "y" : 0.5,
                  "z" : 0.30000001192092896
               },
               "Rotation" : {
                  "x" : 0,
                  "y" : 0,
                  "z" : 0
               },
               "Scale" : {
                  "x" : 0,
                  "y" : 0,
                  "z" : 0
               }
            },
            "Minima" : {
               "Position" : {
                  "x" : 0,
                  "y" : -0.5,
                  "z" : -0.75
               },
               "Rotation" : {
                  "x" : 0,
                  "y" : 0,
                  "z" : 0
               },
               "Scale" : {
                  "x" : 0,
                  "y" : 0,
                  "z" : 0
               }
            }
         },
         {
            "Bone" : "bone_R_Temple",
            "Maxima" : {
               "Position" : {
                  "x" : 0,
                  "y" : 0.5,
                  "z" : 0.30000001192092896
               },
               "Rotation" : {
                  "x" : 0,
                  "y" : 0,
                  "z" : 0
               },
               "Scale" : {
                  "x" : 0,
                  "y" : 0,
                  "z" : 0
               }
            },
            "Minima" : {
               "Position" : {
                  "x" : 0,
                  "y" : -0.5,
                  "z" : -0.75
               },
               "Rotation" : {
                  "x" : 0,
                  "y" : 0,
                  "z" : 0
               },
               "Scale" : {
                  "x" : 0,
                  "y" : 0,
                  "z" : 0
               }
            }
         }
      ],
      "Defaults" : {
         "Position" : {
            "x" : 0,
            "y" : 0,
            "z" : 0
         },
         "Rotation" : {
            "x" : 0,
            "y" : 0,
            "z" : 0
         },
         "Scale" : {
            "x" : 0,
            "y" : 0,
            "z" : 0
         }
      },
      "ID" : 921646268,
      "Name" : "Temple"
   },
   {
      "AssociatedHeadPartType" : "Facial Hair",
      "AssociatedMorphGroup" : "Chin",
      "BonesA" : [
         {
            "Bone" : "bone_C_Chin",
            "Maxima" : {
               "Position" : {
                  "x" : 0.20000000298023224,
                  "y" : 0.69999998807907104,
                  "z" : 0.80000001192092896
               },
               "Rotation" : {
                  "x" : 15,
                  "y" : 0,
                  "z" : 0
               },
               "Scale" : {
                  "x" : 0.30000001192092896,
                  "y" : 0,
                  "z" : 0
               }
            },
            "Minima" : {
               "Position" : {
                  "x" : -0.20000000298023224,
                  "y" : -0.5,
                  "z" : -0.80000001192092896
               },
               "Rotation" : {
                  "x" : -15,
                  "y" : 0,
                  "z" : 0
               },
               "Scale" : {
                  "x" : -0.30000001192092896,
                  "y" : 0,
                  "z" : 0
               }
            }
         }
      ],
      "Defaults" : {
         "Position" : {
            "x" : 0,
            "y" : 0,
            "z" : 0
         },
         "Rotation" : {
            "x" : 0,
            "y" : 0,
            "z" : 0
         },
         "Scale" : {
            "x" : 0,
            "y" : 0,
            "z" : 0
         }
      },
      "ID" : 921646269,
      "Name" : "Chin"
   },
   {
      "AssociatedMorphGroup" : "Neck",
      "BonesA" : [
         {
            "Bone" : "bone_C_Adam'sApple",
            "Maxima" : {
               "Position" : {
                  "x" : 0,
                  "y" : 0,
                  "z" : 2
               },
               "Rotation" : {
                  "x" : 0,
                  "y" : 0,
                  "z" : 0
               },
               "Scale" : {
                  "x" : 0,
                  "y" : 0,
                  "z" : 0
               }
            },
            "Minima" : {
               "Position" : {
                  "x" : 0,
                  "y" : 0,
                  "z" : -0.60000002384185791
               },
               "Rotation" : {
                  "x" : 0,
                  "y" : 0,
                  "z" : 0
               },
               "Scale" : {
                  "x" : 0,
                  "y" : 0,
                  "z" : 0
               }
            }
         },
         {
            "Bone" : "bone_L_NeckMuscle",
            "Maxima" : {
               "Position" : {
                  "x" : 0,
                  "y" : 0,
                  "z" : 1.7999999523162842
               },
               "Rotation" : {
                  "x" : 0,
                  "y" : 0,
                  "z" : 0
               },
               "Scale" : {
                  "x" : 0,
                  "y" : 0,
                  "z" : 0
               }
            },
            "Minima" : {
               "Position" : {
                  "x" : 0,
                  "y" : 0,
                  "z" : -0.5
               },
               "Rotation" : {
                  "x" : 0,
                  "y" : 0,
                  "z" : 0
               },
               "Scale" : {
                  "x" : 0,
                  "y" : 0,
                  "z" : 0
               }
            }
         },
         {
            "Bone" : "bone_L_Neckmuscle2",
            "Maxima" : {
               "Position" : {
                  "x" : 0,
                  "y" : 0,
                  "z" : 2
               },
               "Rotation" : {
                  "x" : 0,
                  "y" : 0,
                  "z" : 0
               },
               "Scale" : {
                  "x" : 0,
                  "y" : 0,
                  "z" : 0
               }
            },
            "Minima" : {
               "Position" : {
                  "x" : 0,
                  "y" : 0,
                  "z" : -0.5
               },
               "Rotation" : {
                  "x" : 0,
                  "y" : 0,
                  "z" : 0
               },
               "Scale" : {
                  "x" : 0,
                  "y" : 0,
                  "z" : 0
               }
            }
         },
         {
            "Bone" : "bone_R_NeckMuscle",
            "Maxima" : {
               "Position" : {
                  "x" : 0,
                  "y" : 0,
                  "z" : 1.7999999523162842
               },
               "Rotation" : {
                  "x" : 0,
                  "y" : 0,
                  "z" : 0
               },
               "Scale" : {
                  "x" : 0,
                  "y" : 0,
                  "z" : 0
               }
            },
            "Minima" : {
               "Position" : {
                  "x" : 0,
                  "y" : 0,
                  "z" : -0.5
               },
               "Rotation" : {
                  "x" : 0,
                  "y" : 0,
                  "z" : 0
               },
               "Scale" : {
                  "x" : 0,
                  "y" : 0,
                  "z" : 0
               }
            }
         },
         {
            "Bone" : "bone_R_Neckmuscle2",
            "Maxima" : {
               "Position" : {
                  "x" : 0,
                  "y" : 0,
                  "z" : 2
               },
               "Rotation" : {
                  "x" : 0,
                  "y" : 0,
                  "z" : 0
               },
               "Scale" : {
                  "x" : 0,
                  "y" : 0,
                  "z" : 0
               }
            },
            "Minima" : {
               "Position" : {
                  "x" : 0,
                  "y" : 0,
                  "z" : -0.5
               },
               "Rotation" : {
                  "x" : 0,
                  "y" : 0,
                  "z" : 0
               },
               "Scale" : {
                  "x" : 0,
                  "y" : 0,
                  "z" : 0
               }
            }
         }
      ],
      "Defaults" : {
         "Position" : {
            "x" : 0,
            "y" : 0,
            "z" : 0
         },
         "Rotation" : {
            "x" : 0,
            "y" : 0,
            "z" : 0
         },
         "Scale" : {
            "x" : 0,
            "y" : 0,
            "z" : 0
         }
      },
      "ID" : 921646270,
      "IsNeckRegion" : true,
      "Name" : "Neck Fat"
   },
   {
      "AssociatedHeadPartType" : "Eyes",
      "AssociatedMorphGroup" : "Eyes",
      "BonesA" : [
         {
            "Bone" : "bone_R_Eye",
            "Maxima" : {
               "Position" : {
                  "x" : 0.30000001192092896,
                  "y" : 0.34999999403953552,
                  "z" : 0.30000001192092896
               },
               "Rotation" : {
                  "x" : 5,
                  "y" : 0,
                  "z" : 5
               },
               "Scale" : {
                  "x" : 0.15000000596046448,
                  "y" : 0.15000000596046448,
                  "z" : 0
               }
            },
            "Minima" : {
               "Position" : {
                  "x" : -0.20000000298023224,
                  "y" : -0.40000000596046448,
                  "z" : -0.25
               },
               "Rotation" : {
                  "x" : -5,
                  "y" : 0,
                  "z" : -5
               },
               "Scale" : {
                  "x" : -0.15000000596046448,
                  "y" : -0.15000000596046448,
                  "z" : 0
               }
            }
         },
         {
            "Bone" : "bone_L_Eye",
            "Maxima" : {
               "Position" : {
                  "x" : -0.30000001192092896,
                  "y" : 0.34999999403953552,
                  "z" : 0.30000001192092896
               },
               "Rotation" : {
                  "x" : 5,
                  "y" : 0,
                  "z" : -5
               },
               "Scale" : {
                  "x" : 0.15000000596046448,
                  "y" : 0.15000000596046448,
                  "z" : 0
               }
            },
            "Minima" : {
               "Position" : {
                  "x" : 0.20000000298023224,
                  "y" : -0.40000000596046448,
                  "z" : -0.25
               },
               "Rotation" : {
                  "x" : -5,
                  "y" : 0,
                  "z" : 5
               },
               "Scale" : {
                  "x" : -0.15000000596046448,
                  "y" : -0.15000000596046448,
                  "z" : 0
               }
            }
         }
      ],
      "Defaults" : {
         "Position" : {
            "x" : 0,
            "y" : 0,
            "z" : 0
         },
         "Rotation" : {
            "x" : 0,
            "y" : 0,
            "z" : 0
         },
         "Scale" : {
            "x" : 0,
            "y" : 0,
            "z" : 0
         }
      },
      "ID" : 921646271,
      "Name" : "Eyes"
   },
   {
      "AssociatedMorphGroup" : "Cheeks",
      "BonesA" : [
         {
            "Bone" : "bone_L_CheekBoneBack",
            "Maxima" : {
               "Position" : {
                  "x" : 0,
                  "y" : 0.30000001192092896,
                  "z" : 0.5
               },
               "Rotation" : {
                  "x" : 0,
                  "y" : 0,
                  "z" : 0
               },
               "Scale" : {
                  "x" : 0,
                  "y" : 0,
                  "z" : 0
               }
            },
            "Minima" : {
               "Position" : {
                  "x" : 0,
                  "y" : -0.30000001192092896,
                  "z" : -0.40000000596046448
               },
               "Rotation" : {
                  "x" : 0,
                  "y" : 0,
                  "z" : 0
               },
               "Scale" : {
                  "x" : 0,
                  "y" : 0,
                  "z" : 0
               }
            }
         },
         {
            "Bone" : "bone_R_CheekBoneBack",
            "Maxima" : {
               "Position" : {
                  "x" : 0,
                  "y" : 0.30000001192092896,
                  "z" : 0.5
               },
               "Rotation" : {
                  "x" : 0,
                  "y" : 0,
                  "z" : 0
               },
               "Scale" : {
                  "x" : 0,
                  "y" : 0,
                  "z" : 0
               }
            },
            "Minima" : {
               "Position" : {
                  "x" : 0,
                  "y" : -0.30000001192092896,
                  "z" : -0.40000000596046448
               },
               "Rotation" : {
                  "x" : 0,
                  "y" : 0,
                  "z" : 0
               },
               "Scale" : {
                  "x" : 0,
                  "y" : 0,
                  "z" : 0
               }
            }
         }
      ],
      "Defaults" : {
         "Position" : {
            "x" : 0,
            "y" : 0,
            "z" : 0
         },
         "Rotation" : {
            "x" : 0,
            "y" : 0,
            "z" : 0
         },
         "Scale" : {
            "x" : 0,
            "y" : 0,
            "z" : 0
         }
      },
      "ID" : 921646272,
      "Name" : "Cheek Bones Back"
   },
   {
      "AssociatedMorphGroup" : "Nose",
      "BonesA" : [
         {
            "Bone" : "bone_C_Nose_Bridge",
            "Maxima" : {
               "Position" : {
                  "x" : 0.30000001192092896,
                  "y" : 0.40000000596046448,
                  "z" : 0.80000001192092896
               },
               "Rotation" : {
                  "x" : 30,
                  "y" : 0,
                  "z" : 0
               },
               "Scale" : {
                  "x" : 0.20000000298023224,
                  "y" : 0,
                  "z" : 0
               }
            },
            "Minima" : {
               "Position" : {
                  "x" : -0.30000001192092896,
                  "y" : -0.40000000596046448,
                  "z" : -0.69999998807907104
               },
               "Rotation" : {
                  "x" : -30,
                  "y" : 0,
                  "z" : 0
               },
               "Scale" : {
                  "x" : -0.20000000298023224,
                  "y" : 0,
                  "z" : 0
               }
            }
         }
      ],
      "Defaults" : {
         "Position" : {
            "x" : 0,
            "y" : 0,
            "z" : 0
         },
         "Rotation" : {
            "x" : 0,
            "y" : 0,
            "z" : 0
         },
         "Scale" : {
            "x" : 0,
            "y" : 0,
            "z" : 0
         }
      },
      "ID" : 921646273,
      "Name" : "Nose Bridge"
   },
   {
      "AssociatedTintGroup" : "Brows",
      "BonesA" : [
         {
            "Bone" : "bone_C_EyebrowMid",
            "Maxima" : {
               "Position" : {
                  "x" : 0,
                  "y" : 0.30000001192092896,
                  "z" : 0.20000000298023224
               },
               "Rotation" : {
                  "x" : 0,
                  "y" : 0,
                  "z" : 0
               },
               "Scale" : {
                  "x" : 0.20000000298023224,
                  "y" : 0,
                  "z" : 0
               }
            },
            "Minima" : {
               "Position" : {
                  "x" : 0,
                  "y" : -0.30000001192092896,
                  "z" : -0.20000000298023224
               },
               "Rotation" : {
                  "x" : 0,
                  "y" : 0,
                  "z" : 0
               },
               "Scale" : {
                  "x" : -0.20000000298023224,
                  "y" : 0,
                  "z" : 0
               }
            }
         }
      ],
      "Defaults" : {
         "Position" : {
            "x" : 0,
            "y" : 0,
            "z" : 0
         },
         "Rotation" : {
            "x" : 0,
            "y" : 0,
            "z" : 0
         },
         "Scale" : {
            "x" : 0,
            "y" : 0,
            "z" : 0
         }
      },
      "ID" : 921646274,
      "Name" : "Eyebrows Mid"
   },
   {
      "AssociatedMorphGroup" : "Nose",
      "BonesA" : [
         {
            "Bone" : "bone_C_Nose",
            "Maxima" : {
               "Position" : {
                  "x" : 0.30000001192092896,
                  "y" : 0.60000002384185791,
                  "z" : 0.30000001192092896
               },
               "Rotation" : {
                  "x" : 20,
                  "y" : 0,
                  "z" : 0
               },
               "Scale" : {
                  "x" : 0.30000001192092896,
                  "y" : 0.30000001192092896,
                  "z" : 0.30000001192092896
               }
            },
            "Minima" : {
               "Position" : {
                  "x" : -0.30000001192092896,
                  "y" : -0.30000001192092896,
                  "z" : -0.5
               },
               "Rotation" : {
                  "x" : -20,
                  "y" : 0,
                  "z" : 0
               },
               "Scale" : {
                  "x" : -0.30000001192092896,
                  "y" : -0.30000001192092896,
                  "z" : -0.30000001192092896
               }
            }
         }
      ],
      "Defaults" : {
         "Position" : {
            "x" : 0,
            "y" : 0,
            "z" : 0
         },
         "Rotation" : {
            "x" : 0,
            "y" : 0,
            "z" : 0
         },
         "Scale" : {
            "x" : 0,
            "y" : 0,
            "z" : 0
         }
      },
      "ID" : 921646275,
      "Name" : "Nose Tip"
   },
   {
      "AssociatedMorphGroup" : "Mouth",
      "BonesA" : [
         {
            "Bone" : "bone_C_MasterMouth",
            "Maxima" : {
               "Position" : {
                  "x" : 0.15000000596046448,
                  "y" : 0.40000000596046448,
                  "z" : 0.30000001192092896
               },
               "Rotation" : {
                  "x" : 0,
                  "y" : 0,
                  "z" : 0
               },
               "Scale" : {
                  "x" : 0.15000000596046448,
                  "y" : 0.15000000596046448,
                  "z" : 0.15000000596046448
               }
            },
            "Minima" : {
               "Position" : {
                  "x" : -0.15000000596046448,
                  "y" : -0.40000000596046448,
                  "z" : -0.30000001192092896
               },
               "Rotation" : {
                  "x" : 0,
                  "y" : 0,
                  "z" : 0
               },
               "Scale" : {
                  "x" : -0.20000000298023224,
                  "y" : -0.20000000298023224,
                  "z" : -0.20000000298023224
               }
            }
         }
      ],
      "Defaults" : {
         "Position" : {
            "x" : 0,
            "y" : 0,
            "z" : 0
         },
         "Rotation" : {
            "x" : 0,
            "y" : 0,
            "z" : 0
         },
         "Scale" : {
            "x" : 0,
            "y" : 0,
            "z" : 0
         }
      },
      "ID" : 921646276,
      "Name" : "Mouth Main"
   },
   {
      "AssociatedMorphGroup" : "Mouth",
      "BonesA" : [
         {
            "Bone" : "bone_L_MouthTop",
            "Maxima" : {
               "Position" : {
                  "x" : -0.40000000596046448,
                  "y" : 0.20000000298023224,
                  "z" : 0.20000000298023224
               },
               "Rotation" : {
                  "x" : 0,
                  "y" : 0,
                  "z" : -5
               },
               "Scale" : {
                  "x" : 0,
                  "y" : 0,
                  "z" : 0
               }
            },
            "Minima" : {
               "Position" : {
                  "x" : 0.40000000596046448,
                  "y" : -0.20000000298023224,
                  "z" : -0.20000000298023224
               },
               "Rotation" : {
                  "x" : 0,
                  "y" : 0,
                  "z" : 5
               },
               "Scale" : {
                  "x" : 0,
                  "y" : 0,
                  "z" : 0
               }
            }
         },
         {
            "Bone" : "bone_L_Dimple",
            "Maxima" : {
               "Position" : {
                  "x" : -0.10000000149011612,
                  "y" : 0.15000000596046448,
                  "z" : 0.10000000149011612
               },
               "Rotation" : {
                  "x" : 0,
                  "y" : 0,
                  "z" : 0
               },
               "Scale" : {
                  "x" : 0,
                  "y" : 0,
                  "z" : 0
               }
            },
            "Minima" : {
               "Position" : {
                  "x" : 0.10000000149011612,
                  "y" : -0.15000000596046448,
                  "z" : -0.10000000149011612
               },
               "Rotation" : {
                  "x" : 0,
                  "y" : 0,
                  "z" : 0
               },
               "Scale" : {
                  "x" : 0,
                  "y" : 0,
                  "z" : 0
               }
            }
         },
         {
            "Bone" : "bone_R_MouthTop",
            "Maxima" : {
               "Position" : {
                  "x" : 0.40000000596046448,
                  "y" : 0.20000000298023224,
                  "z" : 0.20000000298023224
               },
               "Rotation" : {
                  "x" : 0,
                  "y" : 0,
                  "z" : 5
               },
               "Scale" : {
                  "x" : 0,
                  "y" : 0,
                  "z" : 0
               }
            },
            "Minima" : {
               "Position" : {
                  "x" : -0.40000000596046448,
                  "y" : -0.20000000298023224,
                  "z" : -0.20000000298023224
               },
               "Rotation" : {
                  "x" : 0,
                  "y" : 0,
                  "z" : -5
               },
               "Scale" : {
                  "x" : 0,
                  "y" : 0,
                  "z" : 0
               }
            }
         },
         {
            "Bone" : "bone_R_MouthCorner",
            "Maxima" : {
               "Position" : {
                  "x" : 0.5,
                  "y" : 0.40000000596046448,
                  "z" : 0.40000000596046448
               },
               "Rotation" : {
                  "x" : 0,
                  "y" : 0,
                  "z" : 14
               },
               "Scale" : {
                  "x" : 0,
                  "y" : 0,
                  "z" : 0
               }
            },
            "Minima" : {
               "Position" : {
                  "x" : -0.5,
                  "y" : -0.40000000596046448,
                  "z" : -0.20000000298023224
               },
               "Rotation" : {
                  "x" : 0,
                  "y" : 0,
                  "z" : -14
               },
               "Scale" : {
                  "x" : 0,
                  "y" : 0,
                  "z" : 0
               }
            }
         },
         {
            "Bone" : "bone_R_Dimple",
            "Maxima" : {
               "Position" : {
                  "x" : 0.10000000149011612,
                  "y" : 0.15000000596046448,
                  "z" : 0.10000000149011612
               },
               "Rotation" : {
                  "x" : 0,
                  "y" : 0,
                  "z" : 0
               },
               "Scale" : {
                  "x" : 0,
                  "y" : 0,
                  "z" : 0
               }
            },
            "Minima" : {
               "Position" : {
                  "x" : -0.10000000149011612,
                  "y" : -0.15000000596046448,
                  "z" : -0.10000000149011612
               },
               "Rotation" : {
                  "x" : 0,
                  "y" : 0,
                  "z" : 0
               },
               "Scale" : {
                  "x" : 0,
                  "y" : 0,
                  "z" : 0
               }
            }
         },
         {
            "Bone" : "bone_L_MouthCorner",
            "Maxima" : {
               "Position" : {
                  "x" : -0.5,
                  "y" : 0.40000000596046448,
                  "z" : 0.40000000596046448
               },
               "Rotation" : {
                  "x" : 0,
                  "y" : 0,
                  "z" : -14
               },
               "Scale" : {
                  "x" : 0,
                  "y" : 0,
                  "z" : 0
               }
            },
            "Minima" : {
               "Position" : {
                  "x" : 0.5,
                  "y" : -0.40000000596046448,
                  "z" : -0.20000000298023224
               },
               "Rotation" : {
                  "x" : 0,
                  "y" : 0,
                  "z" : 14
               },
               "Scale" : {
                  "x" : 0,
                  "y" : 0,
                  "z" : 0
               }
            }
         },
         {
            "Bone" : "bone_L_MouthBot",
            "Maxima" : {
               "Position" : {
                  "x" : -0.40000000596046448,
                  "y" : 0.20000000298023224,
                  "z" : 0.20000000298023224
               },
               "Rotation" : {
                  "x" : 0,
                  "y" : 0,
                  "z" : -5
               },
               "Scale" : {
                  "x" : 0,
                  "y" : 0,
                  "z" : 0
               }
            },
            "Minima" : {
               "Position" : {
                  "x" : 0.40000000596046448,
                  "y" : -0.20000000298023224,
                  "z" : -0.20000000298023224
               },
               "Rotation" : {
                  "x" : 0,
                  "y" : 0,
                  "z" : 5
               },
               "Scale" : {
                  "x" : 0,
                  "y" : 0,
                  "z" : 0
               }
            }
         },
         {
            "Bone" : "bone_R_MouthBot",
            "Maxima" : {
               "Position" : {
                  "x" : 0.40000000596046448,
                  "y" : 0.20000000298023224,
                  "z" : 0.20000000298023224
               },
               "Rotation" : {
                  "x" : 0,
                  "y" : 0,
                  "z" : 5
               },
               "Scale" : {
                  "x" : 0,
                  "y" : 0,
                  "z" : 0
               }
            },
            "Minima" : {
               "Position" : {
                  "x" : -0.40000000596046448,
                  "y" : -0.20000000298023224,
                  "z" : -0.20000000298023224
               },
               "Rotation" : {
                  "x" : 0,
                  "y" : 0,
                  "z" : -5
               },
               "Scale" : {
                  "x" : 0,
                  "y" : 0,
                  "z" : 0
               }
            }
         }
      ],
      "Defaults" : {
         "Position" : {
            "x" : 0,
            "y" : 0,
            "z" : 0
         },
         "Rotation" : {
            "x" : 0,
            "y" : 0,
            "z" : 0
         },
         "Scale" : {
            "x" : 0,
            "y" : 0,
            "z" : 0
         }
      },
      "ID" : 921646277,
      "Name" : "Mouth Corners"
   },
   {
      "AssociatedMorphGroup" : "Mouth",
      "BonesA" : [
         {
            "Bone" : "bone_L_MouthTop",
            "Maxima" : {
               "Position" : {
                  "x" : 0,
                  "y" : 0.20000000298023224,
                  "z" : 0.20000000298023224
               },
               "Rotation" : {
                  "x" : 0,
                  "y" : 0,
                  "z" : 0
               },
               "Scale" : {
                  "x" : 0.30000001192092896,
                  "y" : 0.30000001192092896,
                  "z" : 0.30000001192092896
               }
            },
            "Minima" : {
               "Position" : {
                  "x" : 0,
                  "y" : -0.20000000298023224,
                  "z" : -0.20000000298023224
               },
               "Rotation" : {
                  "x" : 0,
                  "y" : 0,
                  "z" : 0
               },
               "Scale" : {
                  "x" : -0.20000000298023224,
                  "y" : -0.20000000298023224,
                  "z" : -0.20000000298023224
               }
            }
         },
         {
            "Bone" : "bone_R_MouthTop",
            "Maxima" : {
               "Position" : {
                  "x" : 0,
                  "y" : 0.20000000298023224,
                  "z" : 0.20000000298023224
               },
               "Rotation" : {
                  "x" : 0,
                  "y" : 0,
                  "z" : 0
               },
               "Scale" : {
                  "x" : 0.30000001192092896,
                  "y" : 0.30000001192092896,
                  "z" : 0.30000001192092896
               }
            },
            "Minima" : {
               "Position" : {
                  "x" : 0,
                  "y" : -0.20000000298023224,
                  "z" : -0.20000000298023224
               },
               "Rotation" : {
                  "x" : 0,
                  "y" : 0,
                  "z" : 0
               },
               "Scale" : {
                  "x" : -0.20000000298023224,
                  "y" : -0.20000000298023224,
                  "z" : -0.20000000298023224
               }
            }
         },
         {
            "Bone" : "bone_C_MouthTop",
            "Maxima" : {
               "Position" : {
                  "x" : 0,
                  "y" : 0.10000000149011612,
                  "z" : 0.20000000298023224
               },
               "Rotation" : {
                  "x" : 0,
                  "y" : 0,
                  "z" : 0
               },
               "Scale" : {
                  "x" : 0.60000002384185791,
                  "y" : 0.60000002384185791,
                  "z" : 0.60000002384185791
               }
            },
            "Minima" : {
               "Position" : {
                  "x" : 0,
                  "y" : -0.10000000149011612,
                  "z" : -0.20000000298023224
               },
               "Rotation" : {
                  "x" : 0,
                  "y" : 0,
                  "z" : 0
               },
               "Scale" : {
                  "x" : -0.40000000596046448,
                  "y" : -0.40000000596046448,
                  "z" : -0.40000000596046448
               }
            }
         }
      ],
      "Defaults" : {
         "Position" : {
            "x" : 0,
            "y" : 0,
            "z" : 0
         },
         "Rotation" : {
            "x" : 0,
            "y" : 0,
            "z" : 0
         },
         "Scale" : {
            "x" : 0,
            "y" : 0,
            "z" : 0
         }
      },
      "ID" : 921646278,
      "Name" : "Mouth Top"
   },
   {
      "AssociatedMorphGroup" : "Mouth",
      "BonesA" : [
         {
            "Bone" : "bone_C_MouthBot",
            "Maxima" : {
               "Position" : {
                  "x" : 0,
                  "y" : 0.070000000298023224,
                  "z" : 0.20000000298023224
               },
               "Rotation" : {
                  "x" : 0,
                  "y" : 0,
                  "z" : 0
               },
               "Scale" : {
                  "x" : 0.60000002384185791,
                  "y" : 0.60000002384185791,
                  "z" : 0.60000002384185791
               }
            },
            "Minima" : {
               "Position" : {
                  "x" : 0,
                  "y" : -0.070000000298023224,
                  "z" : -0.20000000298023224
               },
               "Rotation" : {
                  "x" : 0,
                  "y" : 0,
                  "z" : 0
               },
               "Scale" : {
                  "x" : -0.40000000596046448,
                  "y" : -0.40000000596046448,
                  "z" : -0.40000000596046448
               }
            }
         },
         {
            "Bone" : "bone_R_MouthBot",
            "Maxima" : {
               "Position" : {
                  "x" : 0,
                  "y" : 0.15000000596046448,
                  "z" : 0.20000000298023224
               },
               "Rotation" : {
                  "x" : 0,
                  "y" : 0,
                  "z" : 0
               },
               "Scale" : {
                  "x" : 0.30000001192092896,
                  "y" : 0.30000001192092896,
                  "z" : 0.30000001192092896
               }
            },
            "Minima" : {
               "Position" : {
                  "x" : 0,
                  "y" : -0.15000000596046448,
                  "z" : -0.20000000298023224
               },
               "Rotation" : {
                  "x" : 0,
                  "y" : 0,
                  "z" : 0
               },
               "Scale" : {
                  "x" : -0.20000000298023224,
                  "y" : -0.20000000298023224,
                  "z" : -0.20000000298023224
               }
            }
         },
         {
            "Bone" : "bone_L_MouthBot",
            "Maxima" : {
               "Position" : {
                  "x" : 0,
                  "y" : 0.15000000596046448,
                  "z" : 0.20000000298023224
               },
               "Rotation" : {
                  "x" : 0,
                  "y" : 0,
                  "z" : 0
               },
               "Scale" : {
                  "x" : 0.30000001192092896,
                  "y" : 0.30000001192092896,
                  "z" : 0.30000001192092896
               }
            },
            "Minima" : {
               "Position" : {
                  "x" : 0,
                  "y" : -0.15000000596046448,
                  "z" : -0.20000000298023224
               },
               "Rotation" : {
                  "x" : 0,
                  "y" : 0,
                  "z" : 0
               },
               "Scale" : {
                  "x" : -0.20000000298023224,
                  "y" : -0.20000000298023224,
                  "z" : -0.20000000298023224
               }
            }
         }
      ],
      "Defaults" : {
         "Position" : {
            "x" : 0,
            "y" : 0,
            "z" : 0
         },
         "Rotation" : {
            "x" : 0,
            "y" : 0,
            "z" : 0
         },
         "Scale" : {
            "x" : 0,
            "y" : 0,
            "z" : 0
         }
      },
      "ID" : 921646279,
      "Name" : "Mouth Bot"
   },
   {
      "AssociatedMorphGroup" : "Forehead",
      "BonesA" : [
         {
            "Bone" : "bone_C_ForeheadMid",
            "Maxima" : {
               "Position" : {
                  "x" : 0,
                  "y" : 0.20000000298023224,
                  "z" : 0.5
               },
               "Rotation" : {
                  "x" : 0,
                  "y" : 0,
                  "z" : 0
               },
               "Scale" : {
                  "x" : 0.30000001192092896,
                  "y" : 0,
                  "z" : 0
               }
            },
            "Minima" : {
               "Position" : {
                  "x" : 0,
                  "y" : -0.20000000298023224,
                  "z" : -0.20000000298023224
               },
               "Rotation" : {
                  "x" : 0,
                  "y" : 0,
                  "z" : 0
               },
               "Scale" : {
                  "x" : -0.30000001192092896,
                  "y" : 0,
                  "z" : 0
               }
            }
         }
      ],
      "Defaults" : {
         "Position" : {
            "x" : 0,
            "y" : 0,
            "z" : 0
         },
         "Rotation" : {
            "x" : 0,
            "y" : 0,
            "z" : 0
         },
         "Scale" : {
            "x" : 0,
            "y" : 0,
            "z" : 0
         }
      },
      "ID" : 25,
      "Name" : "Forehead"
   },
   {
      "AssociatedHeadPartType" : "Facial Hair",
      "AssociatedMorphGroup" : "Chin",
      "BonesA" : [
         {
            "Bone" : "bone_C_MasterBot",
            "Maxima" : {
               "Position" : {
                  "x" : 0.20000000298023224,
                  "y" : 0.5,
                  "z" : 0.5
               },
               "Rotation" : {
                  "x" : 0,
                  "y" : 0,
                  "z" : 0
               },
               "Scale" : {
                  "x" : 0,
                  "y" : 0,
                  "z" : 0
               }
            },
            "Minima" : {
               "Position" : {
                  "x" : -0.20000000298023224,
                  "y" : -0.20000000298023224,
                  "z" : -0.20000000298023224
               },
               "Rotation" : {
                  "x" : 0,
                  "y" : 0,
                  "z" : 0
               },
               "Scale" : {
                  "x" : 0,
                  "y" : 0,
                  "z" : 0
               }
            }
         },
         {
            "Bone" : "bone_C_MasterNose",
            "Maxima" : {
               "Position" : {
                  "x" : 0.10000000149011612,
                  "y" : 0.25,
                  "z" : 0.25
               },
               "Rotation" : {
                  "x" : 0,
                  "y" : 0,
                  "z" : 0
               },
               "Scale" : {
                  "x" : 0,
                  "y" : 0,
                  "z" : 0
               }
            },
            "Minima" : {
               "Position" : {
                  "x" : -0.10000000149011612,
                  "y" : -0.15000000596046448,
                  "z" : -0.15000000596046448
               },
               "Rotation" : {
                  "x" : 0,
                  "y" : 0,
                  "z" : 0
               },
               "Scale" : {
                  "x" : 0,
                  "y" : 0,
                  "z" : 0
               }
            }
         }
      ],
      "Defaults" : {
         "Position" : {
            "x" : 0,
            "y" : 0,
            "z" : 0
         },
         "Rotation" : {
            "x" : 0,
            "y" : 0,
            "z" : 0
         },
         "Scale" : {
            "x" : 0,
            "y" : 0,
            "z" : 0
         }
      },
      "ID" : 26,
      "Name" : "Lower Face"
   },
   {
      "BonesA" : [
         {
            "Bone" : "bone_R_SideNodeFat",
            "Maxima" : {
               "Position" : {
                  "x" : 0.40000000596046448,
                  "y" : 0.5,
                  "z" : 0.60000002384185791
               },
               "Rotation" : {
                  "x" : 0,
                  "y" : 0,
                  "z" : 0
               },
               "Scale" : {
                  "x" : 0,
                  "y" : 0,
                  "z" : 0
               }
            },
            "Minima" : {
               "Position" : {
                  "x" : -0.30000001192092896,
                  "y" : -0.5,
                  "z" : -0.30000001192092896
               },
               "Rotation" : {
                  "x" : 0,
                  "y" : 0,
                  "z" : 0
               },
               "Scale" : {
                  "x" : 0,
                  "y" : 0,
                  "z" : 0
               }
            }
         },
         {
            "Bone" : "bone_R_Dimple",
            "Maxima" : {
               "Position" : {
                  "x" : 0.20000000298023224,
                  "y" : 0.30000001192092896,
                  "z" : 0.30000001192092896
               },
               "Rotation" : {
                  "x" : 0,
                  "y" : 0,
                  "z" : 0
               },
               "Scale" : {
                  "x" : 0,
                  "y" : 0,
                  "z" : 0
               }
            },
            "Minima" : {
               "Position" : {
                  "x" : -0.20000000298023224,
                  "y" : -0.20000000298023224,
                  "z" : -0.10000000149011612
               },
               "Rotation" : {
                  "x" : 0,
                  "y" : 0,
                  "z" : 0
               },
               "Scale" : {
                  "x" : 0,
                  "y" : 0,
                  "z" : 0
               }
            }
         },
         {
            "Bone" : "bone_L_SideNodeFat",
            "Maxima" : {
               "Position" : {
                  "x" : -0.40000000596046448,
                  "y" : 0.5,
                  "z" : 0.60000002384185791
               },
               "Rotation" : {
                  "x" : 0,
                  "y" : 0,
                  "z" : 0
               },
               "Scale" : {
                  "x" : 0,
                  "y" : 0,
                  "z" : 0
               }
            },
            "Minima" : {
               "Position" : {
                  "x" : 0.30000001192092896,
                  "y" : -0.5,
                  "z" : -0.30000001192092896
               },
               "Rotation" : {
                  "x" : 0,
                  "y" : 0,
                  "z" : 0
               },
               "Scale" : {
                  "x" : 0,
                  "y" : 0,
                  "z" : 0
               }
            }
         },
         {
            "Bone" : "bone_L_Dimple",
            "Maxima" : {
               "Position" : {
                  "x" : -0.20000000298023224,
                  "y" : 0.30000001192092896,
                  "z" : 0.30000001192092896
               },
               "Rotation" : {
                  "x" : 0,
                  "y" : 0,
                  "z" : 0
               },
               "Scale" : {
                  "x" : 0,
                  "y" : 0,
                  "z" : 0
               }
            },
            "Minima" : {
               "Position" : {
                  "x" : 0.20000000298023224,
                  "y" : -0.20000000298023224,
                  "z" : -0.10000000149011612
               },
               "Rotation" : {
                  "x" : 0,
                  "y" : 0,
                  "z" : 0
               },
               "Scale" : {
                  "x" : 0,
                  "y" : 0,
                  "z" : 0
               }
            }
         }
      ],
      "Defaults" : {
         "Position" : {
            "x" : 0,
            "y" : 0,
            "z" : 0
         },
         "Rotation" : {
            "x" : 0,
            "y" : 0,
            "z" : 0
         },
         "Scale" : {
            "x" : 0,
            "y" : 0,
            "z" : 0
         }
      },
      "ID" : 27,
      "Name" : "Side Nose Fat"
   },
   {
      "AssociatedMorphGroup" : "Eyes",
      "AssociatedMorphSliders" : [ 921646547, 921646548 ],
      "BonesA" : [
         {
            "Bone" : "bone_R_Eyelid_Top",
            "Maxima" : {
               "Position" : {
                  "x" : 0,
                  "y" : 0,
                  "z" : 0
               },
               "Rotation" : {
                  "x" : 0,
                  "y" : 0,
                  "z" : 0
               },
               "Scale" : {
                  "x" : 0,
                  "y" : 0,
                  "z" : 0
               }
            },
            "Minima" : {
               "Position" : {
                  "x" : 0,
                  "y" : 0,
                  "z" : 0
               },
               "Rotation" : {
                  "x" : 0,
                  "y" : 0,
                  "z" : 0
               },
               "Scale" : {
                  "x" : 0,
                  "y" : 0,
                  "z" : 0
               }
            }
         },
         {
            "Bone" : "bone_L_Eyelid_Top",
            "Maxima" : {
               "Position" : {
                  "x" : 0,
                  "y" : 0,
                  "z" : 0
               },
               "Rotation" : {
                  "x" : 0,
                  "y" : 0,
                  "z" : 0
               },
               "Scale" : {
                  "x" : 0,
                  "y" : 0,
                  "z" : 0
               }
            },
            "Minima" : {
               "Position" : {
                  "x" : 0,
                  "y" : 0,
                  "z" : 0
               },
               "Rotation" : {
                  "x" : 0,
                  "y" : 0,
                  "z" : 0
               },
               "Scale" : {
                  "x" : 0,
                  "y" : 0,
                  "z" : 0
               }
            }
         }
      ],
      "Defaults" : {
         "Position" : {
            "x" : 0,
            "y" : 0,
            "z" : 0
         },
         "Rotation" : {
            "x" : 0,
            "y" : 0,
            "z" : 0
         },
         "Scale" : {
            "x" : 0,
            "y" : 0,
            "z" : 0
         }
      },
      "ID" : 60,
      "Name" : "Eyelids - Top"
   },
   {
      "AssociatedMorphGroup" : "Eyes",
      "AssociatedMorphSliders" : [ 921646549, 921646550 ],
      "BonesA" : [
         {
            "Bone" : "bone_R_Eyelid_Bot",
            "Maxima" : {
               "Position" : {
                  "x" : 0,
                  "y" : 0,
                  "z" : 0
               },
               "Rotation" : {
                  "x" : 0,
                  "y" : 0,
                  "z" : 0
               },
               "Scale" : {
                  "x" : 0,
                  "y" : 0,
                  "z" : 0
               }
            },
            "Minima" : {
               "Position" : {
                  "x" : 0,
                  "y" : 0,
                  "z" : 0
               },
               "Rotation" : {
                  "x" : 0,
                  "y" : 0,
                  "z" : 0
               },
               "Scale" : {
                  "x" : 0,
                  "y" : 0,
                  "z" : 0
               }
            }
         },
         {
            "Bone" : "bone_L_Eyelid_Bot",
            "Maxima" : {
               "Position" : {
                  "x" : 0,
                  "y" : 0,
                  "z" : 0
               },
               "Rotation" : {
                  "x" : 0,
                  "y" : 0,
                  "z" : 0
               },
               "Scale" : {
                  "x" : 0,
                  "y" : 0,
                  "z" : 0
               }
            },
            "Minima" : {
               "Position" : {
                  "x" : 0,
                  "y" : 0,
                  "z" : 0
               },
               "Rotation" : {
                  "x" : 0,
                  "y" : 0,
                  "z" : 0
               },
               "Scale" : {
                  "x" : 0,
                  "y" : 0,
                  "z" : 0
               }
            }
         }
      ],
      "Defaults" : {
         "Position" : {
            "x" : 0,
            "y" : 0,
            "z" : 0
         },
         "Rotation" : {
            "x" : 0,
            "y" : 0,
            "z" : 0
         },
         "Scale" : {
            "x" : 0,
            "y" : 0,
            "z" : 0
         }
      },
      "ID" : 61,
      "Name" : "Eyelids - Bottom"
   },
   {
      "BonesA" : [
         {
            "Bone" : "bone_L_Dimple",
            "Maxima" : {
               "Position" : {
                  "x" : -0.60000002384185791,
                  "y" : 0.60000002384185791,
                  "z" : 0.60000002384185791
               },
               "Rotation" : {
                  "x" : 0,
                  "y" : 0,
                  "z" : 0
               },
               "Scale" : {
                  "x" : 0,
                  "y" : 0,
                  "z" : 0
               }
            },
            "Minima" : {
               "Position" : {
                  "x" : 0.60000002384185791,
                  "y" : -0.60000002384185791,
                  "z" : -0.5
               },
               "Rotation" : {
                  "x" : 0,
                  "y" : 0,
                  "z" : 0
               },
               "Scale" : {
                  "x" : 0,
                  "y" : 0,
                  "z" : 0
               }
            }
         },
         {
            "Bone" : "bone_R_Dimple",
            "Maxima" : {
               "Position" : {
                  "x" : 0.60000002384185791,
                  "y" : 0.60000002384185791,
                  "z" : 0.60000002384185791
               },
               "Rotation" : {
                  "x" : 0,
                  "y" : 0,
                  "z" : 0
               },
               "Scale" : {
                  "x" : 0,
                  "y" : 0,
                  "z" : 0
               }
            },
            "Minima" : {
               "Position" : {
                  "x" : -0.60000002384185791,
                  "y" : -0.60000002384185791,
                  "z" : -0.5
               },
               "Rotation" : {
                  "x" : 0,
                  "y" : 0,
                  "z" : 0
               },
               "Scale" : {
                  "x" : 0,
                  "y" : 0,
                  "z" : 0
               }
            }
         }
      ],
      "Defaults" : {
         "Position" : {
            "x" : 0,
            "y" : 0,
            "z" : 0
         },
         "Rotation" : {
            "x" : 0,
            "y" : 0,
            "z" : 0
         },
         "Scale" : {
            "x" : 0,
            "y" : 0,
            "z" : 0
         }
      },
      "ID" : 62,
      "Name" : "Jowls -  Lower"
   },
   {
      "BonesA" : [
         {
            "Bone" : "bone_R_EyeUnder",
            "Maxima" : {
               "Position" : {
                  "x" : 0,
                  "y" : 0.5,
                  "z" : 0.80000001192092896
               },
               "Rotation" : {
                  "x" : 0,
                  "y" : 0,
                  "z" : 0
               },
               "Scale" : {
                  "x" : 0,
                  "y" : 0,
                  "z" : 0
               }
            },
            "Minima" : {
               "Position" : {
                  "x" : 0,
                  "y" : -0.5,
                  "z" : -0.30000001192092896
               },
               "Rotation" : {
                  "x" : 0,
                  "y" : 0,
                  "z" : 0
               },
               "Scale" : {
                  "x" : 0,
                  "y" : 0,
                  "z" : 0
               }
            }
         },
         {
            "Bone" : "bone_L_EyeUnder",
            "Maxima" : {
               "Position" : {
                  "x" : 0,
                  "y" : 0.5,
                  "z" : 0.80000001192092896
               },
               "Rotation" : {
                  "x" : 0,
                  "y" : 0,
                  "z" : 0
               },
               "Scale" : {
                  "x" : 0,
                  "y" : 0,
                  "z" : 0
               }
            },
            "Minima" : {
               "Position" : {
                  "x" : 0,
                  "y" : -0.5,
                  "z" : -0.30000001192092896
               },
               "Rotation" : {
                  "x" : 0,
                  "y" : 0,
                  "z" : 0
               },
               "Scale" : {
                  "x" : 0,
                  "y" : 0,
                  "z" : 0
               }
            }
         }
      ],
      "Defaults" : {
         "Position" : {
            "x" : 0,
            "y" : 0,
            "z" : 0
         },
         "Rotation" : {
            "x" : 0,
            "y" : 0,
            "z" : 0
         },
         "Scale" : {
            "x" : 0,
            "y" : 0,
            "z" : 0
         }
      },
      "ID" : 63,
      "Name" : "Nose - Ridge"
   }
]
